LnL	numparams	d	e	j	AICc	AICc_wt
DEC	-58.34	2	0.070	0.082	0	121.7	0.0002
DEC+J	-55.39	3	0.038	1.0e-12	0.18	119	0.0008
DIVALIKE	-58.91	2	0.075	0.079	0	122.8	0.0001
DIVALIKE+J	-58.15	3	0.040	0.0015	0.24	124.5	5.1e-05
BAYAREALIKE	-57.57	2	0.064	0.17	0	120.1	0.0004
BAYAREALIKE+J	-48.26	3	0.017	0.012	0.21	104.7	1.00
