LnL	numparams	d	e	j	AIC	AIC_wt
DEC	-58.3447656419787	2	0.0703576785261281	0.0818789758499565	0	120.689531283957	0.000112848390130909
DEC+J	-55.3852981213049	3	0.0379136647372346	1e-12	0.183126777392465	116.77059624261	0.000800721149321594
DIVALIKE	-58.9105009180658	2	0.0746860827739919	0.0792751368548798	0	121.821001836132	6.40913853839522e-05
DIVALIKE+J	-58.1453738388905	3	0.0402530598227911	0.00150124022660802	0.24321063240079	122.290747677781	5.06752203529221e-05
BAYAREALIKE	-57.565324639257	2	0.0640889511196932	0.173984390698605	0	119.130649278514	0.00024603806022278
BAYAREALIKE+J	-48.2565755085212	3	0.0171346516907386	0.0118302480878408	0.214557015480678	102.513151017042	0.998725625794588
