15	6 (A C E I O S)
Hermosilla_azurea	001000
Kyphosus_bigibbus	110111
Kyphosus_cinerascens	110110
Kyphosus_cornelii	000101
Kyphosus_elegans	001000
Kyphosus_hawaiiensis	010000
Kyphosus_sectatrix	111111
Kyphosus_gladius	000001
Kyphosus_sydneyanus	000001
Kyphosus_vaigiensis	111111
Medialuna_californiensis	001000
Neoscorpis_lithophilus	000010
Scorpis_lineolatus	000001
Sectator_ocyurus	011000
Scorpis_violaceus	000001