LnL;numparams;d;e;j;x;AICc;AICc_wt;modelname
DEC;-46.12;3;0.069;0.092;0;0.46;101.2;0.0056;M06
DEC+J;-42.34;4;0.023;1.0e-12;0.058;1.31;98.39;0.023;M06
DIVALIKE;-57.22;3;1.69;1.01;0;-1.38;123.4;8.5e-08;M06
DIVALIKE+J;-50.43;4;0.27;0.19;1.43;-1.86;114.6;7.1e-06;M06
BAYAREALIKE;-43.82;3;0.066;0.22;0;0.36;96.64;0.056;M06
BAYAREALIKE+J;-38.67;4;0.033;0.021;0.39;-0.75;91.05;0.92;M06
