LnL;numparams;d;e;j;AICc;AICc_wt;modelname
DEC;-47.57;2;0.068;0.091;0;100.5;0.021;M03
DEC+J;-47.52;3;0.074;0.11;1.0e-05;104;0.0034;M03
DIVALIKE;-49.03;2;0.061;0.086;0;103.4;0.0048;M03
DIVALIKE+J;-47.58;3;0.10;0.16;0.87;104.2;0.0033;M03
BAYAREALIKE;-44.99;2;0.060;0.15;0;95.31;0.27;M03
BAYAREALIKE+J;-42.22;3;0.017;0.030;0.23;93.43;0.70;M03
