LnL	numparams	d	e	j	AICc	AICc_wt
DEC	-47.68	2	0.067	0.097	0	100.7	0.014
DEC+J	-47.68	3	0.067	0.097	1.0e-05	104.4	0.0022
DIVALIKE	-48.55	2	0.093	0.14	0	102.4	0.0059
DIVALIKE+J	-48.19	3	0.093	0.15	0.38	105.4	0.0013
BAYAREALIKE	-45.14	2	0.048	0.14	0	95.62	0.18
BAYAREALIKE+J	-41.81	3	0.016	0.033	0.22	92.61	0.80
