LnL	numparams	d	e	j	AIC	AIC_wt
DEC	-46.48	2	0.062	0.028	0	96.96	0.0013
DEC+J	-43.84	3	0.054	1.0e-12	0.22	93.67	0.0068
DIVALIKE	-46.68	2	0.063	0.023	0	97.36	0.0011
DIVALIKE+J	-45.1	3	0.053	1.0e-12	0.41	96.21	0.0019
BAYAREALIKE	-44.09	2	0.074	0.18	0	92.18	0.014
BAYAREALIKE+J	-38.87	3	0.023	0.019	0.28	83.74	0.97
