LnL	numparams	d	e	j	AIC	AIC_wt
DEC	-46.4817491465717	2	0.061785171635614	0.0275092860416046	0	96.9634982931433	0.00130996919686224
DEC+J	-43.836391119747	3	0.053833676310297	1e-12	0.221397153306081	93.6727822394939	0.00678939373673062
DIVALIKE	-46.6780031691204	2	0.0634213508999563	0.02348664006679	0	97.3560063382407	0.00107653720741108
DIVALIKE+J	-45.1027206092959	3	0.0534050981452692	1e-12	0.407117641475203	96.2054412185918	0.00191368778954762
BAYAREALIKE	-44.0913696250756	2	0.0738382406733979	0.183790419665719	0	92.1827392501511	0.0143017676939415
BAYAREALIKE+J	-38.8697167696276	3	0.0233938246546514	0.019458298022256	0.278146802577691	83.7394335392552	0.974608644375507
