LnL	M00_LnL	M01_LnL	M02_LnL	M03_LnL	M04_LnL	M05_LnL	M06_LnL	M07_LnL	M08_LnL
DEC	-58.32	-58.63	-58.34	-58.32	-57.35	-64.62	-57.32	-58.62	-25.23
DEC+J	-58.32	-55.66	-55.39	-58.32	-54.76	-62.95	-57.32	-55.66	-25.23
DIVALIKE	-60.31	-59.2	-58.91	-59.97	-59.52	-72.29	-64.5	-59.2	-27.29
DIVALIKE+J	-60.01	-59.16	-58.15	-59.96	-56.8	-66.78	-54.2	-59.16	-27.29
BAYAREALIKE	-56.37	-57.84	-57.57	-56.29	-55.74	-60.82	-56.1	-57.89	-19.23
BAYAREALIKE+J	-51.46	-48.9	-48.26	-51.87	-48.03	-60.79	-47.95	-48.89	-14.66
