LnL;numparams;d;e;j;AIC;AIC_wt;modelname
DEC;-58.63;2;0.067;0.070;0;121.3;0.0002;M01
DEC+J;-55.66;3;0.038;1.0e-12;0.18;117.3;0.0012;M01
DIVALIKE;-59.2;2;0.076;0.078;0;122.4;9.2e-05;M01
DIVALIKE+J;-59.16;3;0.068;0.069;0.039;124.3;3.5e-05;M01
BAYAREALIKE;-57.84;2;0.067;0.18;0;119.7;0.0004;M01
BAYAREALIKE+J;-48.9;3;0.017;0.013;0.21;103.8;1.00;M01
