LnL	numparams	d	e	j	AICc	AICc_wt
DEC	-57.35	2	0.071	0.082	0	119.7	0.0004
DEC+J	-54.76	3	0.038	1.0e-12	0.17	117.7	0.0012
DIVALIKE	-59.52	2	0.042	0.013	0	124	5.0e-05
DIVALIKE+J	-56.8	3	0.040	0.0005	0.25	121.8	0.0002
BAYAREALIKE	-55.74	2	0.077	0.20	0	116.5	0.0022
BAYAREALIKE+J	-48.03	3	0.018	0.013	0.24	104.2	1.00
