LnL	numparams	d	e	j	x	AIC	AIC_wt
DEC	-46.1229241715688	3	0.0688378412361282	0.0916874947266533	0	0.458145673878008	98.2458483431376	0.00151113302195298
DEC+J	-42.3388675861893	4	0.022681647516098	1e-12	0.0582575717760758	1.30658641880687	92.6777351723786	0.0244569957686506
DIVALIKE	-57.2214050705531	3	1.68694781910029	1.01343331259581	0	-1.37936963781117	120.442810141106	2.28714492278854e-08
DIVALIKE+J	-50.4300245295516	4	0.269992634655045	0.188856162132173	1.42584247162094	-1.86173461755966	108.860049059103	7.48959434204501e-06
BAYAREALIKE	-43.8209602682947	3	0.0655008239298105	0.216864144787231	0	0.361397635797103	93.6419205365894	0.015101946131494
BAYAREALIKE+J	-38.669973719552	4	0.0327154263320841	0.0211887735019506	0.392955091742465	-0.751592592293101	85.339947439104	0.958922412612111
