alt2;null;LnLalt;LnLnull;Dstatistic;pval;AIC1;AIC2;AICwt1;AICwt2;AICweight_ratio_model1;AICweight_ratio_model2;modelname;constraint;Abbreviation_constraint
DEC+J;DEC;-47.68;-47.68;-7.1e-05;1;101.4;99.37;0.27;0.73;0.37;2.72;M00;na;na
DIVALIKE+J;DIVALIKE;-48.19;-48.55;0.70;0.40;102.4;101.1;0.34;0.66;0.52;1.91;M00;na;na
BAYAREALIKE+J;BAYAREALIKE;-41.81;-45.14;6.68;0.0098;89.61;94.29;0.91;0.088;10.37;0.096;M00;na;na
DEC+J;DEC;-44.69;-47.73;6.09;0.014;95.38;99.47;0.89;0.11;7.71;0.13;M01;timeperiods_and_time_restricted_adjacent_regions_and_time_stratified_adjacent_regions_and_time_stratified_oceanic_barriers;tp_and_trar_and_tsar_and_tsob
DIVALIKE+J;DIVALIKE;-46.64;-48.25;3.22;0.073;99.27;100.5;0.65;0.35;1.84;0.54;M01;timeperiods_and_time_restricted_adjacent_regions_and_time_stratified_adjacent_regions_and_time_stratified_oceanic_barriers;tp_and_trar_and_tsar_and_tsob
BAYAREALIKE+J;BAYAREALIKE;-39.09;-46.52;14.86;0.0001;84.17;97.03;1.00;0.0016;619.3;0.0016;M01;timeperiods_and_time_restricted_adjacent_regions_and_time_stratified_adjacent_regions_and_time_stratified_oceanic_barriers;tp_and_trar_and_tsar_and_tsob
DEC+J;DEC;-44.47;-47.69;6.46;0.011;94.93;99.39;0.90;0.097;9.28;0.11;M02;timeperiods_and_time_restricted_adjacent_regions;tp_and_trar
DIVALIKE+J;DIVALIKE;-46.29;-47.41;2.24;0.13;98.58;98.82;0.53;0.47;1.13;0.89;M02;timeperiods_and_time_restricted_adjacent_regions;tp_and_trar
BAYAREALIKE+J;BAYAREALIKE;-38.55;-45.55;13.99;0.0002;83.11;95.1;1.00;0.0025;401.7;0.0025;M02;timeperiods_and_time_restricted_adjacent_regions;tp_and_trar
DEC+J;DEC;-47.52;-47.57;0.083;0.77;101;99.13;0.28;0.72;0.38;2.61;M03;timeperiods_and_time_stratified_dispersal;tp_and_tsd
DIVALIKE+J;DIVALIKE;-47.58;-49.03;2.89;0.089;101.2;102.1;0.61;0.39;1.56;0.64;M03;timeperiods_and_time_stratified_dispersal;tp_and_tsd
BAYAREALIKE+J;BAYAREALIKE;-42.22;-44.99;5.54;0.019;90.43;93.98;0.85;0.15;5.89;0.17;M03;timeperiods_and_time_stratified_dispersal;tp_and_tsd
DEC+J;DEC;-43.84;-46.48;5.29;0.021;93.67;96.96;0.84;0.16;5.18;0.19;M04;timeperiods_and_time_stratified_dispersal;tp_and_tsd
DIVALIKE+J;DIVALIKE;-45.1;-46.68;3.15;0.076;96.21;97.36;0.64;0.36;1.78;0.56;M04;timeperiods_and_time_stratified_dispersal;tp_and_tsd
BAYAREALIKE+J;BAYAREALIKE;-38.87;-44.09;10.44;0.0012;83.74;92.18;0.99;0.014;68.15;0.015;M04;timeperiods_and_time_stratified_dispersal;tp_and_tsd
DEC+J;DEC;-50.42;-50.61;0.37;0.54;106.8;105.2;0.31;0.69;0.44;2.26;M05;timeperiods_and_time_restricted_adjacent_regions_and_time_stratified_connectivity_westward_current;tp_and_trar_and_tscwwc
DIVALIKE+J;DIVALIKE;-52.09;-56.01;7.83;0.0051;110.2;116;0.95;0.051;18.45;0.054;M05;timeperiods_and_time_restricted_adjacent_regions_and_time_stratified_connectivity_westward_current;tp_and_trar_and_tscwwc
BAYAREALIKE+J;BAYAREALIKE;-45.98;-46.79;1.62;0.20;97.96;97.58;0.45;0.55;0.83;1.21;M05;timeperiods_and_time_restricted_adjacent_regions_and_time_stratified_connectivity_westward_current;tp_and_trar_and_tscwwc
DEC+J;DEC;-42.34;-46.12;7.57;0.0059;90.68;96.25;0.94;0.058;16.18;0.062;M06;timeperiods_and_time_stratified_dispersal_and_distance_matrix;tp_and_tsd_and_dm
DIVALIKE+J;DIVALIKE;-50.43;-57.22;13.58;0.0002;106.9;118.4;1.00;0.0030;327.5;0.0031;M06;timeperiods_and_time_stratified_dispersal_and_distance_matrix;tp_and_tsd_and_dm
BAYAREALIKE+J;BAYAREALIKE;-38.67;-43.82;10.3;0.0013;83.34;91.64;0.98;0.016;63.5;0.016;M06;timeperiods_and_time_stratified_dispersal_and_distance_matrix;tp_and_tsd_and_dm
DEC+J;DEC;-44.69;-47.69;6;0.014;95.38;99.38;0.88;0.12;7.39;0.14;M07;timeperiods_and_time_stratified_dispersal_and_time_restricted_adjacent_regions;tp_and_tsd_and_trar
DIVALIKE+J;DIVALIKE;-47.48;-47.78;0.60;0.44;101;99.57;0.33;0.67;0.50;2.01;M07;timeperiods_and_time_stratified_dispersal_and_time_restricted_adjacent_regions;tp_and_tsd_and_trar
BAYAREALIKE+J;BAYAREALIKE;-39.09;-46.45;14.71;0.0001;84.18;96.89;1.00;0.0017;576.8;0.0017;M07;timeperiods_and_time_stratified_dispersal_and_time_restricted_adjacent_regions;tp_and_tsd_and_trar
DEC+J;DEC;-17.81;-17.81;-0.0003;1;41.63;39.63;0.27;0.73;0.37;2.72;M08;climatic_zones;cz
DIVALIKE+J;DIVALIKE;-18.6;-18.6;-0.0004;1;43.2;41.2;0.27;0.73;0.37;2.72;M08;climatic_zones;cz
BAYAREALIKE+J;BAYAREALIKE;-10.78;-16.12;10.68;0.0011;27.56;36.24;0.99;0.013;76.76;0.013;M08;climatic_zones;cz
