LnL	M00_LnL	M01_LnL	M02_LnL	M03_LnL	M04_LnL	M05_LnL	M06_LnL	M07_LnL	M08_LnL
DEC	-47.68	-47.73	-47.69	-47.57	-46.48	-50.61	-46.12	-47.69	-17.81
DEC+J	-47.68	-44.69	-44.47	-47.52	-43.84	-50.42	-42.34	-44.69	-17.81
DIVALIKE	-48.55	-48.25	-47.41	-49.03	-46.68	-56.01	-57.22	-47.78	-18.6
DIVALIKE+J	-48.19	-46.64	-46.29	-47.58	-45.1	-52.09	-50.43	-47.48	-18.6
BAYAREALIKE	-45.14	-46.52	-45.55	-44.99	-44.09	-46.79	-43.82	-46.45	-16.12
BAYAREALIKE+J	-41.81	-39.09	-38.55	-42.22	-38.87	-45.98	-38.67	-39.09	-10.78
