LnL DEC DEC+J DIVALIKE DIVALIKE+J BAYAREALIKE BAYAREALIKE+J
M00_LnL -47.68 -47.68 -48.55 -48.19 -45.14 -41.81
M01_LnL -47.73 -44.69 -48.25 -46.64 -46.52 -39.09
M02_LnL -47.69 -44.47 -47.41 -46.29 -45.55 -38.55
M03_LnL -47.57 -47.52 -49.03 -47.58 -44.99 -42.22
M04_LnL -46.48 -43.84 -46.68 -45.1 -44.09 -38.87
M05_LnL -50.61 -50.42 -56.01 -52.09 -46.79 -45.98
M06_LnL -46.12 -42.34 -57.22 -50.43 -43.82 -38.67
M07_LnL -47.69 -44.69 -47.78 -47.48 -46.45 -39.09
M08_LnL -17.81 -17.81 -18.6 -18.6 -16.12 -10.78
