LnL	numparams	d	e	j	w	AIC	AIC_wt
DEC	-64.6201358537866	3	0.395577451193637	0.200019421468281	0	1	135.240271707573	0.015456357110345
DEC+J	-62.9531085143427	4	0.266076106398937	0.195802176549109	0.227483511260729	0.0835997063524283	133.906217028685	0.0301157328609608
DIVALIKE	-72.2912716133892	3	0.395577600001	0.200000000001	0	1	150.582543226778	7.2040250284285e-06
DIVALIKE+J	-66.7757545710758	4	0.392395851878738	0.265590966886017	0.000992320644375229	0.21942537747297	141.551509142152	0.000658626722525408
BAYAREALIKE	-60.8188148748572	3	0.24591997927211	0.27178986599156	0	0.0242487083602795	127.637629749714	0.69183076129071
BAYAREALIKE+J	-60.7900739116349	4	0.26993069809324	0.232215139676222	0.644372902007676	0.118313903194157	129.58014782327	0.261931317990431
