LnL	numparams	d	e	j	w	AICc	AICc_wt
DEC	-64.62	3	0.40	0.20	0	1	137.4	0.019
DEC+J	-62.95	4	0.27	0.20	0.23	0.084	137.9	0.015
DIVALIKE	-72.29	3	0.40	0.20	0	1	152.8	8.7e-06
DIVALIKE+J	-66.78	4	0.39	0.27	0.0010	0.22	145.6	0.0003
BAYAREALIKE	-60.82	3	0.25	0.27	0	0.024	129.8	0.84
BAYAREALIKE+J	-60.79	4	0.27	0.23	0.64	0.12	133.6	0.13
